test/dump_silly2.vcd
$date
	Fri Feb 13 19:32:22 2026
$end
$version
	Icarus Verilog
$end
$timescale
	1ps
$end
$scope module tb $end
$scope module tt_um_jamesbuchanan_silly $end
$scope module silly1 $end
$scope module silly2 $end
$var wire 1 ! clk $end
$var wire 1 " rst_n $end
$var wire 8 # signal_gen_out [7:0] $end
$var wire 1 $ reset $end
$var reg 1 % clk_div128 $end
$var reg 1 & clk_div16 $end
$var reg 1 ' clk_div2 $end
$var reg 1 ( clk_div256 $end
$var reg 1 ) clk_div32 $end
$var reg 1 * clk_div4 $end
$var reg 1 + clk_div64 $end
$var reg 1 , clk_div8 $end
$upscope $end
$upscope $end
$upscope $end
$upscope $end
$scope module tb $end
$scope module tt_um_jamesbuchanan_silly $end
$scope module silly1 $end
$var wire 1 ! clk $end
$var wire 1 " rst_n $end
$var wire 8 - ui_in [7:0] $end
$var wire 8 . uo_out [7:0] $end
$var wire 8 / signal_gen_in [7:0] $end
$var wire 1 0 reset $end
$var reg 8 1 output_signal [7:0] $end
$var reg 8 2 signal_mask [7:0] $end
$upscope $end
$upscope $end
$upscope $end
$scope module tb $end
$var wire 8 3 uio_oe [7:0] $end
$var wire 8 4 uio_out [7:0] $end
$var wire 8 5 uo_out [7:0] $end
$var reg 1 ! clk $end
$var reg 1 6 ena $end
$var reg 1 " rst_n $end
$var reg 8 7 ui_in [7:0] $end
$var reg 8 8 uio_in [7:0] $end
$scope module tt_um_jamesbuchanan_silly $end
$var wire 1 ! clk $end
$var wire 1 6 ena $end
$var wire 1 " rst_n $end
$var wire 8 9 ui_in [7:0] $end
$var wire 8 : uio_in [7:0] $end
$var wire 8 ; uio_oe [7:0] $end
$var wire 8 < uio_out [7:0] $end
$var wire 8 = uo_out [7:0] $end
$scope module silly1 $end
$scope module silly2 $end
$upscope $end
$upscope $end
$upscope $end
$upscope $end
$enddefinitions $end
$comment Show the parameter values. $end
$dumpall
$end
#0
$dumpvars
bx =
bz <
b0 ;
b0 :
b0 9
b0 8
b0 7
16
bx 5
bz 4
b0 3
b0 2
bx 1
10
b0 /
bx .
b0 -
0,
0+
0*
0)
0(
0'
0&
0%
1$
b0 #
0"
1!
$end
#5000000
0!
#10000000
1!
#15000000
0!
#20000000
1!
#25000000
0!
#30000000
1!
#35000000
0!
#40000000
1!
#45000000
0!
#50000000
1!
#55000000
0!
#60000000
1!
#65000000
0!
#70000000
1!
#75000000
0!
#80000000
1!
#85000000
0!
#90000000
b1 #
b1 /
0(
0%
0+
0)
0&
0,
0*
1'
b11111111 -
b11111111 7
b11111111 9
00
0$
1"
1!
#95000000
0!
#100000000
b0 #
b0 /
0'
b0 .
b0 5
b0 =
b0 1
b11111111 2
1!
#105000000
0!
#110000000
1(
1%
1+
1)
1&
1,
1*
b11111111 #
b11111111 /
1'
1!
#115000000
0!
#120000000
b11111110 #
b11111110 /
0'
b11111111 .
b11111111 5
b11111111 =
b11111111 1
1!
#125000000
0!
#130000000
0*
b11111101 #
b11111101 /
1'
b11111110 .
b11111110 5
b11111110 =
b11111110 1
1!
#135000000
0!
#140000000
b11111100 #
b11111100 /
0'
b11111101 .
b11111101 5
b11111101 =
b11111101 1
1!
#145000000
0!
#150000000
0,
1*
b11111011 #
b11111011 /
1'
b11111100 .
b11111100 5
b11111100 =
b11111100 1
1!
#155000000
0!
#160000000
b11111010 #
b11111010 /
0'
b11111011 .
b11111011 5
b11111011 =
b11111011 1
1!
#165000000
0!
#170000000
0*
b11111001 #
b11111001 /
1'
b11111010 .
b11111010 5
b11111010 =
b11111010 1
1!
#175000000
0!
#180000000
b11111000 #
b11111000 /
0'
b11111001 .
b11111001 5
b11111001 =
b11111001 1
1!
#185000000
0!
#190000000
0&
1,
1*
b11110111 #
b11110111 /
1'
b11111000 .
b11111000 5
b11111000 =
b11111000 1
1!
#195000000
0!
#200000000
b11110110 #
b11110110 /
0'
b11110111 .
b11110111 5
b11110111 =
b11110111 1
1!
#205000000
0!
#210000000
0*
b11110101 #
b11110101 /
1'
b11110110 .
b11110110 5
b11110110 =
b11110110 1
1!
#215000000
0!
#220000000
b11110100 #
b11110100 /
0'
b11110101 .
b11110101 5
b11110101 =
b11110101 1
1!
#225000000
0!
#230000000
0,
1*
b11110011 #
b11110011 /
1'
b11110100 .
b11110100 5
b11110100 =
b11110100 1
1!
#235000000
0!
#240000000
b11110010 #
b11110010 /
0'
b11110011 .
b11110011 5
b11110011 =
b11110011 1
1!
#245000000
0!
#250000000
0*
b11110001 #
b11110001 /
1'
b11110010 .
b11110010 5
b11110010 =
b11110010 1
1!
#255000000
0!
#260000000
b11110000 #
b11110000 /
0'
b11110001 .
b11110001 5
b11110001 =
b11110001 1
1!
#265000000
0!
#270000000
0)
1&
1,
1*
b11101111 #
b11101111 /
1'
b11110000 .
b11110000 5
b11110000 =
b11110000 1
1!
#275000000
0!
#280000000
b11101110 #
b11101110 /
0'
b11101111 .
b11101111 5
b11101111 =
b11101111 1
1!
#285000000
0!
#290000000
0*
b11101101 #
b11101101 /
1'
b11101110 .
b11101110 5
b11101110 =
b11101110 1
1!
#295000000
0!
#300000000
b11101100 #
b11101100 /
0'
b11101101 .
b11101101 5
b11101101 =
b11101101 1
1!
#305000000
0!
#310000000
0,
1*
b11101011 #
b11101011 /
1'
b11101100 .
b11101100 5
b11101100 =
b11101100 1
1!
#315000000
0!
#320000000
b11101010 #
b11101010 /
0'
b11101011 .
b11101011 5
b11101011 =
b11101011 1
1!
#325000000
0!
#330000000
0*
b11101001 #
b11101001 /
1'
b11101010 .
b11101010 5
b11101010 =
b11101010 1
1!
#335000000
0!
#340000000
b11101000 #
b11101000 /
0'
b11101001 .
b11101001 5
b11101001 =
b11101001 1
1!
#345000000
0!
#350000000
0&
1,
1*
b11100111 #
b11100111 /
1'
b11101000 .
b11101000 5
b11101000 =
b11101000 1
1!
#355000000
0!
#360000000
b11100110 #
b11100110 /
0'
b11100111 .
b11100111 5
b11100111 =
b11100111 1
1!
#365000000
0!
#370000000
0*
b11100101 #
b11100101 /
1'
b11100110 .
b11100110 5
b11100110 =
b11100110 1
1!
#375000000
0!
#380000000
b11100100 #
b11100100 /
0'
b11100101 .
b11100101 5
b11100101 =
b11100101 1
1!
#385000000
0!
#390000000
0,
1*
b11100011 #
b11100011 /
1'
b11100100 .
b11100100 5
b11100100 =
b11100100 1
1!
#395000000
0!
#400000000
b11100010 #
b11100010 /
0'
b11100011 .
b11100011 5
b11100011 =
b11100011 1
1!
#405000000
0!
#410000000
0*
b11100001 #
b11100001 /
1'
b11100010 .
b11100010 5
b11100010 =
b11100010 1
1!
#415000000
0!
#420000000
b11100000 #
b11100000 /
0'
b11100001 .
b11100001 5
b11100001 =
b11100001 1
1!
#425000000
0!
#430000000
0+
1)
1&
1,
1*
b11011111 #
b11011111 /
1'
b11100000 .
b11100000 5
b11100000 =
b11100000 1
1!
#435000000
0!
#440000000
b11011110 #
b11011110 /
0'
b11011111 .
b11011111 5
b11011111 =
b11011111 1
1!
#445000000
0!
#450000000
0*
b11011101 #
b11011101 /
1'
b11011110 .
b11011110 5
b11011110 =
b11011110 1
1!
#455000000
0!
#460000000
b11011100 #
b11011100 /
0'
b11011101 .
b11011101 5
b11011101 =
b11011101 1
1!
#465000000
0!
#470000000
0,
1*
b11011011 #
b11011011 /
1'
b11011100 .
b11011100 5
b11011100 =
b11011100 1
1!
#475000000
0!
#480000000
b11011010 #
b11011010 /
0'
b11011011 .
b11011011 5
b11011011 =
b11011011 1
1!
#485000000
0!
#490000000
0*
b11011001 #
b11011001 /
1'
b11011010 .
b11011010 5
b11011010 =
b11011010 1
1!
#495000000
0!
#500000000
b11011000 #
b11011000 /
0'
b11011001 .
b11011001 5
b11011001 =
b11011001 1
1!
#505000000
0!
#510000000
0&
1,
1*
b11010111 #
b11010111 /
1'
b11011000 .
b11011000 5
b11011000 =
b11011000 1
1!
#515000000
0!
#520000000
b11010110 #
b11010110 /
0'
b11010111 .
b11010111 5
b11010111 =
b11010111 1
1!
#525000000
0!
#530000000
0*
b11010101 #
b11010101 /
1'
b11010110 .
b11010110 5
b11010110 =
b11010110 1
1!
#535000000
0!
#540000000
b11010100 #
b11010100 /
0'
b11010101 .
b11010101 5
b11010101 =
b11010101 1
1!
#545000000
0!
#550000000
0,
1*
b11010011 #
b11010011 /
1'
b11010100 .
b11010100 5
b11010100 =
b11010100 1
1!
#555000000
0!
#560000000
b11010010 #
b11010010 /
0'
b11010011 .
b11010011 5
b11010011 =
b11010011 1
1!
#565000000
0!
#570000000
0*
b11010001 #
b11010001 /
1'
b11010010 .
b11010010 5
b11010010 =
b11010010 1
1!
#575000000
0!
#580000000
b11010000 #
b11010000 /
0'
b11010001 .
b11010001 5
b11010001 =
b11010001 1
1!
#585000000
0!
#590000000
0)
1&
1,
1*
b11001111 #
b11001111 /
1'
b11010000 .
b11010000 5
b11010000 =
b11010000 1
1!
#595000000
0!
#600000000
b11001110 #
b11001110 /
0'
b11001111 .
b11001111 5
b11001111 =
b11001111 1
1!
#605000000
0!
#610000000
0*
b11001101 #
b11001101 /
1'
b11001110 .
b11001110 5
b11001110 =
b11001110 1
1!
#615000000
0!
#620000000
b11001100 #
b11001100 /
0'
b11001101 .
b11001101 5
b11001101 =
b11001101 1
1!
#625000000
0!
#630000000
0,
1*
b11001011 #
b11001011 /
1'
b11001100 .
b11001100 5
b11001100 =
b11001100 1
1!
#635000000
0!
#640000000
b11001010 #
b11001010 /
0'
b11001011 .
b11001011 5
b11001011 =
b11001011 1
1!
#645000000
0!
#650000000
0*
b11001001 #
b11001001 /
1'
b11001010 .
b11001010 5
b11001010 =
b11001010 1
1!
#655000000
0!
#660000000
b11001000 #
b11001000 /
0'
b11001001 .
b11001001 5
b11001001 =
b11001001 1
1!
#665000000
0!
#670000000
0&
1,
1*
b11000111 #
b11000111 /
1'
b11001000 .
b11001000 5
b11001000 =
b11001000 1
1!
#675000000
0!
#680000000
b11000110 #
b11000110 /
0'
b11000111 .
b11000111 5
b11000111 =
b11000111 1
1!
#685000000
0!
#690000000
0*
b11000101 #
b11000101 /
1'
b11000110 .
b11000110 5
b11000110 =
b11000110 1
1!
#695000000
0!
#700000000
b11000100 #
b11000100 /
0'
b11000101 .
b11000101 5
b11000101 =
b11000101 1
1!
#705000000
0!
#710000000
0,
1*
b11000011 #
b11000011 /
1'
b11000100 .
b11000100 5
b11000100 =
b11000100 1
1!
#715000000
0!
#720000000
b11000010 #
b11000010 /
0'
b11000011 .
b11000011 5
b11000011 =
b11000011 1
1!
#725000000
0!
#730000000
0*
b11000001 #
b11000001 /
1'
b11000010 .
b11000010 5
b11000010 =
b11000010 1
1!
#735000000
0!
#740000000
b11000000 #
b11000000 /
0'
b11000001 .
b11000001 5
b11000001 =
b11000001 1
1!
#745000000
0!
#750000000
0%
1+
1)
1&
1,
1*
b10111111 #
b10111111 /
1'
b11000000 .
b11000000 5
b11000000 =
b11000000 1
1!
#755000000
0!
#760000000
b10111110 #
b10111110 /
0'
b10111111 .
b10111111 5
b10111111 =
b10111111 1
1!
#765000000
0!
#770000000
0*
b10111101 #
b10111101 /
1'
b10111110 .
b10111110 5
b10111110 =
b10111110 1
1!
#775000000
0!
#780000000
b10111100 #
b10111100 /
0'
b10111101 .
b10111101 5
b10111101 =
b10111101 1
1!
#785000000
0!
#790000000
0,
1*
b10111011 #
b10111011 /
1'
b10111100 .
b10111100 5
b10111100 =
b10111100 1
1!
#795000000
0!
#800000000
b10111010 #
b10111010 /
0'
b10111011 .
b10111011 5
b10111011 =
b10111011 1
1!
#805000000
0!
#810000000
0*
b10111001 #
b10111001 /
1'
b10111010 .
b10111010 5
b10111010 =
b10111010 1
1!
#815000000
0!
#820000000
b10111000 #
b10111000 /
0'
b10111001 .
b10111001 5
b10111001 =
b10111001 1
1!
#825000000
0!
#830000000
0&
1,
1*
b10110111 #
b10110111 /
1'
b10111000 .
b10111000 5
b10111000 =
b10111000 1
1!
#835000000
0!
#840000000
b10110110 #
b10110110 /
0'
b10110111 .
b10110111 5
b10110111 =
b10110111 1
1!
#845000000
0!
#850000000
0*
b10110101 #
b10110101 /
1'
b10110110 .
b10110110 5
b10110110 =
b10110110 1
1!
#855000000
0!
#860000000
b10110100 #
b10110100 /
0'
b10110101 .
b10110101 5
b10110101 =
b10110101 1
1!
#865000000
0!
#870000000
0,
1*
b10110011 #
b10110011 /
1'
b10110100 .
b10110100 5
b10110100 =
b10110100 1
1!
#875000000
0!
#880000000
b10110010 #
b10110010 /
0'
b10110011 .
b10110011 5
b10110011 =
b10110011 1
1!
#885000000
0!
#890000000
0*
b10110001 #
b10110001 /
1'
b10110010 .
b10110010 5
b10110010 =
b10110010 1
1!
#895000000
0!
#900000000
b10110000 #
b10110000 /
0'
b10110001 .
b10110001 5
b10110001 =
b10110001 1
1!
#905000000
0!
#910000000
0)
1&
1,
1*
b10101111 #
b10101111 /
1'
b10110000 .
b10110000 5
b10110000 =
b10110000 1
1!
#915000000
0!
#920000000
b10101110 #
b10101110 /
0'
b10101111 .
b10101111 5
b10101111 =
b10101111 1
1!
#925000000
0!
#930000000
0*
b10101101 #
b10101101 /
1'
b10101110 .
b10101110 5
b10101110 =
b10101110 1
1!
#935000000
0!
#940000000
b10101100 #
b10101100 /
0'
b10101101 .
b10101101 5
b10101101 =
b10101101 1
1!
#945000000
0!
#950000000
0,
1*
b10101011 #
b10101011 /
1'
b10101100 .
b10101100 5
b10101100 =
b10101100 1
1!
#955000000
0!
#960000000
b10101010 #
b10101010 /
0'
b10101011 .
b10101011 5
b10101011 =
b10101011 1
1!
#965000000
0!
#970000000
0*
b10101001 #
b10101001 /
1'
b10101010 .
b10101010 5
b10101010 =
b10101010 1
1!
#975000000
0!
#980000000
b10101000 #
b10101000 /
0'
b10101001 .
b10101001 5
b10101001 =
b10101001 1
1!
#985000000
0!
#990000000
0&
1,
1*
b10100111 #
b10100111 /
1'
b10101000 .
b10101000 5
b10101000 =
b10101000 1
1!
#995000000
0!
#1000000000
b10100110 #
b10100110 /
0'
b10100111 .
b10100111 5
b10100111 =
b10100111 1
1!
#1005000000
0!
#1010000000
0*
b10100101 #
b10100101 /
1'
b10100110 .
b10100110 5
b10100110 =
b10100110 1
1!
#1015000000
0!
#1020000000
b10100100 #
b10100100 /
0'
b10100101 .
b10100101 5
b10100101 =
b10100101 1
1!
#1025000000
0!
#1030000000
0,
1*
b10100011 #
b10100011 /
1'
b10100100 .
b10100100 5
b10100100 =
b10100100 1
1!
#1035000000
0!
#1040000000
b10100010 #
b10100010 /
0'
b10100011 .
b10100011 5
b10100011 =
b10100011 1
1!
#1045000000
0!
#1050000000
0*
b10100001 #
b10100001 /
1'
b10100010 .
b10100010 5
b10100010 =
b10100010 1
1!
#1055000000
0!
#1060000000
b10100000 #
b10100000 /
0'
b10100001 .
b10100001 5
b10100001 =
b10100001 1
1!
#1065000000
0!
#1070000000
0+
1)
1&
1,
1*
b10011111 #
b10011111 /
1'
b10100000 .
b10100000 5
b10100000 =
b10100000 1
1!
#1075000000
0!
#1080000000
b10011110 #
b10011110 /
0'
b10011111 .
b10011111 5
b10011111 =
b10011111 1
1!
#1085000000
0!
#1090000000
0*
b10011101 #
b10011101 /
1'
b10011110 .
b10011110 5
b10011110 =
b10011110 1
1!
#1095000000
0!
#1100000000
b10011100 #
b10011100 /
0'
b10011101 .
b10011101 5
b10011101 =
b10011101 1
1!
#1105000000
0!
#1110000000
0,
1*
b10011011 #
b10011011 /
1'
b10011100 .
b10011100 5
b10011100 =
b10011100 1
1!
#1115000000
0!
#1120000000
b10011010 #
b10011010 /
0'
b10011011 .
b10011011 5
b10011011 =
b10011011 1
1!
#1125000000
0!
#1130000000
0*
b10011001 #
b10011001 /
1'
b10011010 .
b10011010 5
b10011010 =
b10011010 1
1!
#1135000000
0!
#1140000000
b10011000 #
b10011000 /
0'
b10011001 .
b10011001 5
b10011001 =
b10011001 1
1!
#1145000000
0!
#1150000000
0&
1,
1*
b10010111 #
b10010111 /
1'
b10011000 .
b10011000 5
b10011000 =
b10011000 1
1!
#1155000000
0!
#1160000000
b10010110 #
b10010110 /
0'
b10010111 .
b10010111 5
b10010111 =
b10010111 1
1!
#1165000000
0!
#1170000000
0*
b10010101 #
b10010101 /
1'
b10010110 .
b10010110 5
b10010110 =
b10010110 1
1!
#1175000000
0!
#1180000000
b10010100 #
b10010100 /
0'
b10010101 .
b10010101 5
b10010101 =
b10010101 1
1!
#1185000000
0!
#1190000000
0,
1*
b10010011 #
b10010011 /
1'
b10010100 .
b10010100 5
b10010100 =
b10010100 1
1!
#1195000000
0!
#1200000000
b10010010 #
b10010010 /
0'
b10010011 .
b10010011 5
b10010011 =
b10010011 1
1!
#1205000000
0!
#1210000000
0*
b10010001 #
b10010001 /
1'
b10010010 .
b10010010 5
b10010010 =
b10010010 1
1!
#1215000000
0!
#1220000000
b10010000 #
b10010000 /
0'
b10010001 .
b10010001 5
b10010001 =
b10010001 1
1!
#1225000000
0!
#1230000000
0)
1&
1,
1*
b10001111 #
b10001111 /
1'
b10010000 .
b10010000 5
b10010000 =
b10010000 1
1!
#1235000000
0!
#1240000000
b10001110 #
b10001110 /
0'
b10001111 .
b10001111 5
b10001111 =
b10001111 1
1!
#1245000000
0!
#1250000000
0*
b10001101 #
b10001101 /
1'
b10001110 .
b10001110 5
b10001110 =
b10001110 1
1!
#1255000000
0!
#1260000000
b10001100 #
b10001100 /
0'
b10001101 .
b10001101 5
b10001101 =
b10001101 1
1!
#1265000000
0!
#1270000000
0,
1*
b10001011 #
b10001011 /
1'
b10001100 .
b10001100 5
b10001100 =
b10001100 1
1!
#1275000000
0!
#1280000000
b10001010 #
b10001010 /
0'
b10001011 .
b10001011 5
b10001011 =
b10001011 1
1!
#1285000000
0!
#1290000000
0*
b10001001 #
b10001001 /
1'
b10001010 .
b10001010 5
b10001010 =
b10001010 1
1!
#1295000000
0!
#1300000000
b10001000 #
b10001000 /
0'
b10001001 .
b10001001 5
b10001001 =
b10001001 1
1!
#1305000000
0!
#1310000000
0&
1,
1*
b10000111 #
b10000111 /
1'
b10001000 .
b10001000 5
b10001000 =
b10001000 1
1!
#1315000000
0!
#1320000000
b10000110 #
b10000110 /
0'
b10000111 .
b10000111 5
b10000111 =
b10000111 1
1!
#1325000000
0!
#1330000000
0*
b10000101 #
b10000101 /
1'
b10000110 .
b10000110 5
b10000110 =
b10000110 1
1!
#1335000000
0!
#1340000000
b10000100 #
b10000100 /
0'
b10000101 .
b10000101 5
b10000101 =
b10000101 1
1!
#1345000000
0!
#1350000000
0,
1*
b10000011 #
b10000011 /
1'
b10000100 .
b10000100 5
b10000100 =
b10000100 1
1!
#1355000000
0!
#1360000000
b10000010 #
b10000010 /
0'
b10000011 .
b10000011 5
b10000011 =
b10000011 1
1!
#1365000000
0!
#1370000000
0*
b10000001 #
b10000001 /
1'
b10000010 .
b10000010 5
b10000010 =
b10000010 1
1!
#1375000000
0!
#1380000000
b10000000 #
b10000000 /
0'
b10000001 .
b10000001 5
b10000001 =
b10000001 1
1!
#1385000000
0!
#1390000000
0(
1%
1+
1)
1&
1,
1*
b1111111 #
b1111111 /
1'
b10000000 .
b10000000 5
b10000000 =
b10000000 1
1!
#1395000000
0!
#1400000000
b1111110 #
b1111110 /
0'
b1111111 .
b1111111 5
b1111111 =
b1111111 1
1!
#1405000000
0!
#1410000000
0*
b1111101 #
b1111101 /
1'
b1111110 .
b1111110 5
b1111110 =
b1111110 1
1!
#1415000000
0!
#1420000000
b1111100 #
b1111100 /
0'
b1111101 .
b1111101 5
b1111101 =
b1111101 1
1!
#1425000000
0!
#1430000000
0,
1*
b1111011 #
b1111011 /
1'
b1111100 .
b1111100 5
b1111100 =
b1111100 1
1!
#1435000000
0!
#1440000000
b1111010 #
b1111010 /
0'
b1111011 .
b1111011 5
b1111011 =
b1111011 1
1!
#1445000000
0!
#1450000000
0*
b1111001 #
b1111001 /
1'
b1111010 .
b1111010 5
b1111010 =
b1111010 1
1!
#1455000000
0!
#1460000000
b1111000 #
b1111000 /
0'
b1111001 .
b1111001 5
b1111001 =
b1111001 1
1!
#1465000000
0!
#1470000000
0&
1,
1*
b1110111 #
b1110111 /
1'
b1111000 .
b1111000 5
b1111000 =
b1111000 1
1!
#1475000000
0!
#1480000000
b1110110 #
b1110110 /
0'
b1110111 .
b1110111 5
b1110111 =
b1110111 1
1!
#1485000000
0!
#1490000000
0*
b1110101 #
b1110101 /
1'
b1110110 .
b1110110 5
b1110110 =
b1110110 1
1!
#1495000000
0!
#1500000000
b1110100 #
b1110100 /
0'
b1110101 .
b1110101 5
b1110101 =
b1110101 1
1!
#1505000000
0!
#1510000000
0,
1*
b1110011 #
b1110011 /
1'
b1110100 .
b1110100 5
b1110100 =
b1110100 1
1!
#1515000000
0!
#1520000000
b1110010 #
b1110010 /
0'
b1110011 .
b1110011 5
b1110011 =
b1110011 1
1!
#1525000000
0!
#1530000000
0*
b1110001 #
b1110001 /
1'
b1110010 .
b1110010 5
b1110010 =
b1110010 1
1!
#1535000000
0!
#1540000000
b1110000 #
b1110000 /
0'
b1110001 .
b1110001 5
b1110001 =
b1110001 1
1!
#1545000000
0!
#1550000000
0)
1&
1,
1*
b1101111 #
b1101111 /
1'
b1110000 .
b1110000 5
b1110000 =
b1110000 1
1!
#1555000000
0!
#1560000000
b1101110 #
b1101110 /
0'
b1101111 .
b1101111 5
b1101111 =
b1101111 1
1!
#1565000000
0!
#1570000000
0*
b1101101 #
b1101101 /
1'
b1101110 .
b1101110 5
b1101110 =
b1101110 1
1!
#1575000000
0!
#1580000000
b1101100 #
b1101100 /
0'
b1101101 .
b1101101 5
b1101101 =
b1101101 1
1!
#1585000000
0!
#1590000000
0,
1*
b1101011 #
b1101011 /
1'
b1101100 .
b1101100 5
b1101100 =
b1101100 1
1!
#1595000000
0!
#1600000000
b1101010 #
b1101010 /
0'
b1101011 .
b1101011 5
b1101011 =
b1101011 1
1!
#1605000000
0!
#1610000000
0*
b1101001 #
b1101001 /
1'
b1101010 .
b1101010 5
b1101010 =
b1101010 1
1!
#1615000000
0!
#1620000000
b1101000 #
b1101000 /
0'
b1101001 .
b1101001 5
b1101001 =
b1101001 1
1!
#1625000000
0!
#1630000000
0&
1,
1*
b1100111 #
b1100111 /
1'
b1101000 .
b1101000 5
b1101000 =
b1101000 1
1!
#1635000000
0!
#1640000000
b1100110 #
b1100110 /
0'
b1100111 .
b1100111 5
b1100111 =
b1100111 1
1!
#1645000000
0!
#1650000000
0*
b1100101 #
b1100101 /
1'
b1100110 .
b1100110 5
b1100110 =
b1100110 1
1!
#1655000000
0!
#1660000000
b1100100 #
b1100100 /
0'
b1100101 .
b1100101 5
b1100101 =
b1100101 1
1!
#1665000000
0!
#1670000000
0,
1*
b1100011 #
b1100011 /
1'
b1100100 .
b1100100 5
b1100100 =
b1100100 1
1!
#1675000000
0!
#1680000000
b1100010 #
b1100010 /
0'
b1100011 .
b1100011 5
b1100011 =
b1100011 1
1!
#1685000000
0!
#1690000000
0*
b1100001 #
b1100001 /
1'
b1100010 .
b1100010 5
b1100010 =
b1100010 1
1!
#1695000000
0!
#1700000000
b1100000 #
b1100000 /
0'
b1100001 .
b1100001 5
b1100001 =
b1100001 1
1!
#1705000000
0!
#1710000000
0+
1)
1&
1,
1*
b1011111 #
b1011111 /
1'
b1100000 .
b1100000 5
b1100000 =
b1100000 1
1!
#1715000000
0!
#1720000000
b1011110 #
b1011110 /
0'
b1011111 .
b1011111 5
b1011111 =
b1011111 1
1!
#1725000000
0!
#1730000000
0*
b1011101 #
b1011101 /
1'
b1011110 .
b1011110 5
b1011110 =
b1011110 1
1!
#1735000000
0!
#1740000000
b1011100 #
b1011100 /
0'
b1011101 .
b1011101 5
b1011101 =
b1011101 1
1!
#1745000000
0!
#1750000000
0,
1*
b1011011 #
b1011011 /
1'
b1011100 .
b1011100 5
b1011100 =
b1011100 1
1!
#1755000000
0!
#1760000000
b1011010 #
b1011010 /
0'
b1011011 .
b1011011 5
b1011011 =
b1011011 1
1!
#1765000000
0!
#1770000000
0*
b1011001 #
b1011001 /
1'
b1011010 .
b1011010 5
b1011010 =
b1011010 1
1!
#1775000000
0!
#1780000000
b1011000 #
b1011000 /
0'
b1011001 .
b1011001 5
b1011001 =
b1011001 1
1!
#1785000000
0!
#1790000000
0&
1,
1*
b1010111 #
b1010111 /
1'
b1011000 .
b1011000 5
b1011000 =
b1011000 1
1!
#1795000000
0!
#1800000000
b1010110 #
b1010110 /
0'
b1010111 .
b1010111 5
b1010111 =
b1010111 1
1!
#1805000000
0!
#1810000000
0*
b1010101 #
b1010101 /
1'
b1010110 .
b1010110 5
b1010110 =
b1010110 1
1!
#1815000000
0!
#1820000000
b1010100 #
b1010100 /
0'
b1010101 .
b1010101 5
b1010101 =
b1010101 1
1!
#1825000000
0!
#1830000000
0,
1*
b1010011 #
b1010011 /
1'
b1010100 .
b1010100 5
b1010100 =
b1010100 1
1!
#1835000000
0!
#1840000000
b1010010 #
b1010010 /
0'
b1010011 .
b1010011 5
b1010011 =
b1010011 1
1!
#1845000000
0!
#1850000000
0*
b1010001 #
b1010001 /
1'
b1010010 .
b1010010 5
b1010010 =
b1010010 1
1!
#1855000000
0!
#1860000000
b1010000 #
b1010000 /
0'
b1010001 .
b1010001 5
b1010001 =
b1010001 1
1!
#1865000000
0!
#1870000000
0)
1&
1,
1*
b1001111 #
b1001111 /
1'
b1010000 .
b1010000 5
b1010000 =
b1010000 1
1!
#1875000000
0!
#1880000000
b1001110 #
b1001110 /
0'
b1001111 .
b1001111 5
b1001111 =
b1001111 1
1!
#1885000000
0!
#1890000000
0*
b1001101 #
b1001101 /
1'
b1001110 .
b1001110 5
b1001110 =
b1001110 1
1!
#1895000000
0!
#1900000000
b1001100 #
b1001100 /
0'
b1001101 .
b1001101 5
b1001101 =
b1001101 1
1!
#1905000000
0!
#1910000000
0,
1*
b1001011 #
b1001011 /
1'
b1001100 .
b1001100 5
b1001100 =
b1001100 1
1!
#1915000000
0!
#1920000000
b1001010 #
b1001010 /
0'
b1001011 .
b1001011 5
b1001011 =
b1001011 1
1!
#1925000000
0!
#1930000000
0*
b1001001 #
b1001001 /
1'
b1001010 .
b1001010 5
b1001010 =
b1001010 1
1!
#1935000000
0!
#1940000000
b1001000 #
b1001000 /
0'
b1001001 .
b1001001 5
b1001001 =
b1001001 1
1!
#1945000000
0!
#1950000000
0&
1,
1*
b1000111 #
b1000111 /
1'
b1001000 .
b1001000 5
b1001000 =
b1001000 1
1!
#1955000000
0!
#1960000000
b1000110 #
b1000110 /
0'
b1000111 .
b1000111 5
b1000111 =
b1000111 1
1!
#1965000000
0!
#1970000000
0*
b1000101 #
b1000101 /
1'
b1000110 .
b1000110 5
b1000110 =
b1000110 1
1!
#1975000000
0!
#1980000000
b1000100 #
b1000100 /
0'
b1000101 .
b1000101 5
b1000101 =
b1000101 1
1!
#1985000000
0!
#1990000000
0,
1*
b1000011 #
b1000011 /
1'
b1000100 .
b1000100 5
b1000100 =
b1000100 1
1!
#1995000000
0!
#2000000000
b1000010 #
b1000010 /
0'
b1000011 .
b1000011 5
b1000011 =
b1000011 1
1!
#2005000000
0!
#2010000000
0*
b1000001 #
b1000001 /
1'
b1000010 .
b1000010 5
b1000010 =
b1000010 1
1!
#2015000000
0!
#2020000000
b1000000 #
b1000000 /
0'
b1000001 .
b1000001 5
b1000001 =
b1000001 1
1!
#2025000000
0!
#2030000000
0%
1+
1)
1&
1,
1*
b111111 #
b111111 /
1'
b1000000 .
b1000000 5
b1000000 =
b1000000 1
1!
#2035000000
0!
#2040000000
b111110 #
b111110 /
0'
b111111 .
b111111 5
b111111 =
b111111 1
1!
#2045000000
0!
#2050000000
0*
b111101 #
b111101 /
1'
b111110 .
b111110 5
b111110 =
b111110 1
1!
#2055000000
0!
#2060000000
b111100 #
b111100 /
0'
b111101 .
b111101 5
b111101 =
b111101 1
1!
#2065000000
0!
#2070000000
0,
1*
b111011 #
b111011 /
1'
b111100 .
b111100 5
b111100 =
b111100 1
1!
#2075000000
0!
#2080000000
b111010 #
b111010 /
0'
b111011 .
b111011 5
b111011 =
b111011 1
1!
#2085000000
0!
#2090000000
0*
b111001 #
b111001 /
1'
b111010 .
b111010 5
b111010 =
b111010 1
1!
#2095000000
0!
#2100000000
b111000 #
b111000 /
0'
b111001 .
b111001 5
b111001 =
b111001 1
1!
#2105000000
0!
#2110000000
0&
1,
1*
b110111 #
b110111 /
1'
b111000 .
b111000 5
b111000 =
b111000 1
1!
#2115000000
0!
#2120000000
b110110 #
b110110 /
0'
b110111 .
b110111 5
b110111 =
b110111 1
1!
#2125000000
0!
#2130000000
0*
b110101 #
b110101 /
1'
b110110 .
b110110 5
b110110 =
b110110 1
1!
#2135000000
0!
#2140000000
b110100 #
b110100 /
0'
b110101 .
b110101 5
b110101 =
b110101 1
1!
#2145000000
0!
#2150000000
0,
1*
b110011 #
b110011 /
1'
b110100 .
b110100 5
b110100 =
b110100 1
1!
#2155000000
0!
#2160000000
b110010 #
b110010 /
0'
b110011 .
b110011 5
b110011 =
b110011 1
1!
#2165000000
0!
#2170000000
0*
b110001 #
b110001 /
1'
b110010 .
b110010 5
b110010 =
b110010 1
1!
#2175000000
0!
#2180000000
b110000 #
b110000 /
0'
b110001 .
b110001 5
b110001 =
b110001 1
1!
#2185000000
0!
#2190000000
0)
1&
1,
1*
b101111 #
b101111 /
1'
b110000 .
b110000 5
b110000 =
b110000 1
1!
#2195000000
0!
#2200000000
b101110 #
b101110 /
0'
b101111 .
b101111 5
b101111 =
b101111 1
1!
#2205000000
0!
#2210000000
0*
b101101 #
b101101 /
1'
b101110 .
b101110 5
b101110 =
b101110 1
1!
#2215000000
0!
